         ,
        ▐▓▓▒▒▒▒▒▒▒▒▒▒ÆÆ▄▄▄╦╗╦╦╔╓╓╓▄▄
       #▀║▓▒                    ╓▓▓▌
     ,╣▀ ║▌ ▒⌐                ,╣▓╩▐▌
    ╔▓   ║▌  ╙╕             ,▒▒▀  ▐▌
   ║▓▓▓▒▀▀▌▒╝╝▒▒▒▒▒▒▒▒▒▄▄▄▄╣▓▓▌   ▐▌
   ]▓  `╙╣▌    ╔▒"""ⁿⁿⁿⁿ%▒▄▓▀█∩   ]▌
    ▓    ▐▌ "≈▒▒▒╓,,,,,╔▀▀   ▓Γ   ]▓
    █∩   ▐▌   ▒ ▒      ░ ▒   ▓▒   ]▓
    ▓∩   ]▓   ▒ ░      ▒ ▐   ╫▒   ]▓
    ▓Γ   ]▓   ╠▄▀"""""ⁿ▒≈▒╦  ╟▌    ▓
    ▓▒   ]▓╓▄▀▒▒-╓╓╓,,,║▒   "▓▌,   ▓∩
    ╟▌   ║▓▓▒▀▒#@@@#▄▄▄▄▒╦▄╦╦╣▌▄▒▓▄▓╦
    ╟▌  ╣▒▒╙             ╚╕  ║▌  ,▓▀"
    ║▌╓▓▓╜                ╙▒ ▐▌ ╓▓"
    ║▓▓▀                   "▒╣▌▄▀
    ▀▀▀╩╝╝╝▒▒▒▒▒▒▒▒▒#▄▄▄▄▄▄╦▄▓█▒
                             '"
 
___ ____ ____ ____ ____ ____ ____ ____ ___ 
 |  |___ [__  [__  |___ |__/ |__| |     |  
 |  |___ ___] ___] |___ |  \ |  | |___  |  